..F...
======================================================================
FAIL: test_eval_1 (__main__.TestNetflix)
----------------------------------------------------------------------
Traceback (most recent call last):
  File "TestNetflix.py", line 28, in test_eval_1
    w.getvalue(), "10040:\n2.4\n2.4\n2.4\n0.90\n")
AssertionError: '10040:\n2.998894191661789\n2.8068941916617893\n3.492894191661789\nRMSE: 0.79\n' != '10040:\n2.4\n2.4\n2.4\n0.90\n'
  10040:
- 2.998894191661789
- 2.8068941916617893
- 3.492894191661789
- RMSE: 0.79
+ 2.4
+ 2.4
+ 2.4
+ 0.90


----------------------------------------------------------------------
Ran 6 tests in 0.575s

FAILED (failures=1)
